﻿{
        "username": "",
        "password": "",
        "userStatusId": 1,
        "email": "",
        "phone": "",
        "fullname": "",
        "address": "",
        "presenterId": 1,
        "branchId": 1,
        "guidId": 1,
        "userRoles": "",
        "isDelete": 1,
        "createdUtcTime": "0001-01-01T00:00:00",
        "modifiedUtcDate": "0001-01-01T00:00:00"
    }